537997 968683 525
910710 288560 525
205510 408966 443
494075 318468 449
427857 139980 449
56233 882272 525
463608 782290 509
585862 689967 509
447412 747624 509
146478 801645 509
689370 732548 504
267490 521091 470
56271 267231 443
808670 737068 468
182241 298219 443
275081 13043 443
575085 222061 470
630277 958840 525
26781 40866 324
146722 403524 443
974978 249361 525
58999 268049 443
172308 782109 509
227862 193395 386
985786 763138 525
779465 66938 509
144943 812390 509
834962 153164 509
594834 554686 434
831349 83190 509
806220 101262 509
367364 340909 441
944957 607030 525
570365 341943 470
938500 754003 525
144009 596393 470
710458 324577 509
520535 644923 509
333295 83478 443
312436 183985 443
363274 270364 441
152744 525731 470
834354 522043 509
608614 243303 470
132706 849804 525
748779 555310 509
572883 642388 509
841223 38300 525
589574 66227 470
908903 941167 507
820006 685160 504
778264 350611 509
125859 92788 354
592942 488217 470
770925 943169 525
412258 223567 449
214904 863248 525
50051 40598 314
908127 272769 525
260095 298890 407
410240 213907 449
799764 994704 525
232134 53444 443
100232 410105 449
107822 462035 449
525886 101033 470
298007 285971 389
251359 97496 443
301651 814297 509
56096 602540 470
107716 659502 509
469199 164637 449
769899 756096 468
197686 338758 443
568105 519148 452
545201 235348 470
861815 921068 476
749450 998493 525
812927 385839 509
873612 396648 525
697668 714811 504
406825 798201 509
558876 262290 470
38433 83051 351
324087 749484 509
398690 998001 525
297626 976628 525
531544 492901 470
48635 889199 525
964449 968071 365
529356 79893 470
200230 845460 525
229268 951680 525
958771 347715 525
737033 307258 509
548052 960491 525
243279 415103 449
459680 545344 470
942068 69861 525
268205 782735 509
700457 819 509
704187 305557 509
517867 284728 470
167533 928545 525
292352 413924 449
153965 491651 449
817784 46370 509
223460 415437 449
584580 600184 403
372109 12494 443
657657 41054 509
451672 458884 369
500717 57356 449
970270 487433 525
178046 169943 347
956994 841059 507
403383 735125 509
861449 266183 525
416352 947402 525
898625 383037 525
286383 488548 449
942978 116705 525
957843 187846 525
617811 1688 470
210132 198417 373
647841 917869 525
686145 730457 504
843924 91593 525
164087 470187 449
717334 186235 509
910880 104683 525
804057 234416 509
764466 476066 509
109255 217773 386
974590 888726 507
980797 169488 525
732518 514462 509
22379 892356 525
90672 677312 509
142501 888729 525
549098 252547 470
656892 52713 509
930016 586772 525
864562 891305 445
696248 254583 509
192454 705049 509
689776 204558 509
84585 105167 341
740268 352653 509
956536 381590 525
1 1 1
