.........
----------------------------------------------------------------------
Ran 9 tests in 2.103s

OK
Name             Stmts   Miss Branch BrPart  Cover   Missing
------------------------------------------------------------
Collatz.py          38      3     16      2    91%   52-54, 51->52, 58->60
TestCollatz.py      56      0      0      0   100%
------------------------------------------------------------
TOTAL               94      3     16      2    95%
