..............
----------------------------------------------------------------------
Ran 14 tests in 0.061s

OK
Name             Stmts   Miss Branch BrPart  Cover   Missing
------------------------------------------------------------
Collatz.py          37      8     18      1    76%   36-43, 34->36
TestCollatz.py      63      0      0      0   100%
------------------------------------------------------------
TOTAL              100      8     18      1    89%
